Decennial and Intercensal Estimates of US Population by Age and Sex 1990-2019 • uscenpops
…
Note that the drat repository only contains data packages that are not on CRAN, so you will never be in danger of grabbing the wrong version of any other package.

Loading the data

The package works best with the tidyverse libraries.

library(tidyverse)

Load the data:

library(uscenpops)

uscenpops
#> # A tibble: 10,520 x 5
#>     year   age     pop   male female
#>    <int> <dbl>   <dbl>  <dbl>  <dbl>
#>  1  1900     0 1811000 919000 892000
#>  2  1900     1 1835000 928000 907000
#>  3  1900     2 1846000 932000 914000
#>  4  1900     3 1848000 932000 916000
#>  5  1900     4 1841000 928000 913000
#>  6  1900     5 1827000 921000 906000
#>  7  1900     6 1806000 911000 895000
#>  8  1900     7 1780000 899000 881000
#>  9  1900     8 1750000 884000 866000
#> 10  1900     9 1717000 868000 849000
#> # … with 10,510 more rows

Example

library(dplyr)
library(ggplot2)

pop_pyr <- uscenpops %>% select(year, age, male, female) %>%
  pivot_longer(male:female, names_to = "group", values_to = "count") %>%
  group_by(year, group) %>%
  mutate(total = sum(count),
         pct = (count/total)*100,
         base = 0)

pop_pyr
#> # A tibble: 21,040 x 7
#> # Groups:   year, group [240]
#>     year   age group   count    total   pct  base
#>    <int> <dbl> <chr>   <dbl>    <dbl> <dbl> <dbl>
#>  1  1900     0 male   919000 38867000  2.36     0
#>  2  1900     0 female 892000 37227000  2.40     0
#>  3  1900     1 male   928000 38867000  2.39     0
#>  4  1900     1 female 907000 37227000  2.44     0
#>  5  1900     2 male   932000 38867000  2.40     0
#>  6  1900     2 female 914000 37227000  2.46     0
#>  7  1900     3 male   932000 38867000  2.40     0
#>  8  1900     3 female 916000 37227000  2.46     0
#>  9  1900     4 male   928000 38867000  2.39     0
#> 10  1900     4 female 913000 37227000  2.45     0
#> # … with 21,030 more rows
…
